<?xml version="1.0" encoding="UTF-8" standalone="no"?>
<!-- Created with Inkscape (http://www.inkscape.org/) -->

<svg
   xmlns:osb="http://www.openswatchbook.org/uri/2009/osb"
   xmlns:dc="http://purl.org/dc/elements/1.1/"
   xmlns:cc="http://creativecommons.org/ns#"
   xmlns:rdf="http://www.w3.org/1999/02/22-rdf-syntax-ns#"
   xmlns:svg="http://www.w3.org/2000/svg"
   xmlns="http://www.w3.org/2000/svg"
   xmlns:xlink="http://www.w3.org/1999/xlink"
   xmlns:sodipodi="http://sodipodi.sourceforge.net/DTD/sodipodi-0.dtd"
   xmlns:inkscape="http://www.inkscape.org/namespaces/inkscape"
   width="375"
   height="370"
   viewBox="0 0 99.21875 97.895836"
   version="1.1"
   id="svg376"
   inkscape:export-filename="/var/www/casa/casa.local/wp-content/themes/casa/images/g573.png"
   inkscape:export-xdpi="57.230282"
   inkscape:export-ydpi="57.230282"
   sodipodi:docname="zeshoek.svg"
   inkscape:version="0.92.4 (5da689c313, 2019-01-14)">
  <defs
     id="defs370">
    <linearGradient
       id="linearGradient4924"
       osb:paint="solid">
      <stop
         style="stop-color:#000000;stop-opacity:1;"
         offset="0"
         id="stop4922" />
    </linearGradient>
  </defs>
  <sodipodi:namedview
     id="base"
     pagecolor="#ffffff"
     bordercolor="#666666"
     borderopacity="1.0"
     inkscape:pageopacity="0.0"
     inkscape:pageshadow="2"
     inkscape:zoom="1.979899"
     inkscape:cx="211.10025"
     inkscape:cy="228.57374"
     inkscape:document-units="mm"
     inkscape:current-layer="layer1"
     showgrid="false"
     inkscape:window-width="2490"
     inkscape:window-height="1376"
     inkscape:window-x="70"
     inkscape:window-y="27"
     inkscape:window-maximized="1"
     units="px" />
  <metadata
     id="metadata373">
    <rdf:RDF>
      <cc:Work
         rdf:about="">
        <dc:format>image/svg+xml</dc:format>
        <dc:type
           rdf:resource="http://purl.org/dc/dcmitype/StillImage" />
        <dc:title></dc:title>
      </cc:Work>
    </rdf:RDF>
  </metadata>
  <g
     inkscape:label="Layer 1"
     inkscape:groupmode="layer"
     id="layer1"
     transform="translate(0,-199.10414)">
    <g
       id="g4976"
       transform="matrix(0.6103927,0,0,0.61022324,-14.529437,175.33961)">
      <g
         transform="matrix(0.35277777,0,0,-0.35277777,31.530271,161.32626)"
         id="g206" />
      <g
         transform="matrix(0.35277777,0,0,-0.35277777,178.45515,161.32626)"
         id="g210" />
      <g
         transform="matrix(0.35277777,0,0,-0.35277777,104.99056,123.57215)"
         id="g214" />
      <g
         transform="matrix(0.35277777,0,0,-0.35277777,178.45515,161.32626)"
         id="g218">
        <path
           d="M 0,0 -208.246,107.02 V 321.209 L 0,214.187 Z M 0,0 -208.24,-107.022 V 107.167 L 0,214.187 Z"
           style="fill:#fff000;fill-opacity:1;fill-rule:nonzero;stroke:#fff000;stroke-opacity:1"
           id="path220"
           inkscape:connector-curvature="0" />
      </g>
      <g
         transform="matrix(0.35277777,0,0,-0.35277777,24.685221,164.10592)"
         id="g242">
        <path
           sodipodi:nodetypes="ccc"
           inkscape:connector-curvature="0"
           id="path244"
           style="fill:none;stroke:#fff000;stroke-width:5;stroke-linecap:butt;stroke-linejoin:miter;stroke-miterlimit:10;stroke-dasharray:none;stroke-opacity:1"
           d="M 0,9.0913731 V 234.413 l 227.89939,117.12799" />
      </g>
      <g
         transform="matrix(0.35277777,0,0,-0.35277777,105.08306,40.090074)"
         id="g246">
        <path
           sodipodi:nodetypes="ccc"
           inkscape:connector-curvature="0"
           id="path248"
           style="fill:none;stroke:#fff000;stroke-width:5;stroke-linecap:butt;stroke-linejoin:miter;stroke-miterlimit:10;stroke-dasharray:none;stroke-opacity:1"
           d="m 0,0 227.867,-117.128 -0.37881,-225.70043" />
      </g>
      <use
         height="100%"
         width="100%"
         transform="matrix(-1,0,0,1,209.98541,0)"
         id="use4931"
         xlink:href="#g218"
         y="0"
         x="0" />
    </g>
  </g>
</svg>
